…
3.A time series plot of the 5-minute interval (x-axis) and the average
number of steps taken, averaged across all days (y-axis)

    activity1<-activity%>%group_by(interval)%>%summarize(interval_wise_mean=mean(steps,na.rm = T),interval_wise_sum=sum(steps,na.rm = T))
    activity1

    ## # A tibble: 288 x 3
    ##    interval interval_wise_mean interval_wise_sum
    ##       <int>              <dbl>             <int>
    ##  1        0             1.72                  91
    ##  2        5             0.340                 18
    ##  3       10             0.132                  7
    ##  4       15             0.151                  8
    ##  5       20             0.0755                 4
    ##  6       25             2.09                 111
    ##  7       30             0.528                 28
    ##  8       35             0.868                 46
    ##  9       40             0                      0
    ## 10       45             1.47                  78
    ## # ... with 278 more rows
…
      }
    activity_sum_mean_median

    ## # A tibble: 61 x 4
    ##    date       date_wise_sum date_wise_mean date_wise_median
    ##    <date>             <int>          <dbl>            <dbl>
    ##  1 2012-10-01             0         19.9                 NA
    ##  2 2012-10-02           126          0.438                0
    ##  3 2012-10-03         11352         39.4                  0
    ##  4 2012-10-04         12116         42.1                  0
    ##  5 2012-10-05         13294         46.2                  0
    ##  6 2012-10-06         15420         53.5                  0
    ##  7 2012-10-07         11015         38.2                  0
    ##  8 2012-10-08             0         41.4                 NA
    ##  9 2012-10-09         12811         44.5                  0
    ## 10 2012-10-10          9900         34.4                  0
    ## # ... with 51 more rows
…
    activity4<-mutate(activity3,weekday_or_weekend=ifelse(weekday=="Saturday","weekend",ifelse(weekday=="Sunday","weekend","weekday")))
    head(activity4)

    ##   steps       date interval weekday weekday_or_weekend
    ## 1     0 2012-10-01        0  Monday            weekday
    ## 2     0 2012-10-01        5  Monday            weekday
    ## 3     0 2012-10-01       10  Monday            weekday
    ## 4     0 2012-10-01       15  Monday            weekday
    ## 5     0 2012-10-01       20  Monday            weekday
    ## 6     0 2012-10-01       25  Monday            weekday

    activity4_total<-activity4%>%group_by(interval,weekday_or_weekend)%>%summarize(interval_wise_mean=mean(steps))
    activity4_total

    ## # A tibble: 576 x 3
    ## # Groups:   interval [288]
    ##    interval weekday_or_weekend interval_wise_mean
    ##       <int> <chr>                           <dbl>
    ##  1        0 weekday                        2.02  
    ##  2        0 weekend                        0     
    ##  3        5 weekday                        0.4   
    ##  4        5 weekend                        0     
    ##  5       10 weekday                        0.156 
    ##  6       10 weekend                        0     
    ##  7       15 weekday                        0.178 
    ##  8       15 weekend                        0     
    ##  9       20 weekday                        0.0889
    ## 10       20 weekend                        0     
    ## # ... with 566 more rows
…
